injector/mcdt.vcd
$date
	Tue Apr  5 22:25:15 2022
$end
$version
	Icarus Verilog
$end
$timescale
	1ps
$end
$scope module mcdt $end
$var wire 32 ! ch0_data_i [31:0] $end
$var wire 1 " ch0_valid_i $end
$var wire 32 # ch1_data_i [31:0] $end
$var wire 1 $ ch1_valid_i $end
$var wire 32 % ch2_data_i [31:0] $end
$var wire 1 & ch2_valid_i $end
$var wire 1 ' clk_i $end
$var wire 1 ( rstn_i $end
$var wire 1 ) slv2_val_s $end
$var wire 1 * slv2_req_s $end
$var wire 32 + slv2_data_s [31:0] $end
$var wire 1 , slv1_val_s $end
$var wire 1 - slv1_req_s $end
$var wire 32 . slv1_data_s [31:0] $end
$var wire 1 / slv0_val_s $end
$var wire 1 0 slv0_req_s $end
$var wire 32 1 slv0_data_s [31:0] $end
$var wire 1 2 mcdt_val_o $end
$var wire 2 3 mcdt_id_o [1:0] $end
$var wire 32 4 mcdt_data_o [31:0] $end
$var wire 1 5 ch2_ready_o $end
$var wire 6 6 ch2_margin_o [5:0] $end
$var wire 1 7 ch1_ready_o $end
$var wire 6 8 ch1_margin_o [5:0] $end
$var wire 1 9 ch0_ready_o $end
$var wire 6 : ch0_margin_o [5:0] $end
$var wire 1 ; a2s2_ack_s $end
$var wire 1 < a2s1_ack_s $end
$var wire 1 = a2s0_ack_s $end
$scope module inst_arbiter $end
$var wire 32 > arb_data_o [31:0] $end
$var wire 2 ? arb_id_o [1:0] $end
$var wire 1 ' clk_i $end
$var wire 1 2 data_val_o $end
$var wire 1 ( rstn_i $end
$var wire 1 ) slv2_val_i $end
$var wire 1 * slv2_req_i $end
$var wire 32 @ slv2_data_i [31:0] $end
$var wire 1 , slv1_val_i $end
$var wire 1 - slv1_req_i $end
$var wire 32 A slv1_data_i [31:0] $end
$var wire 1 / slv0_val_i $end
$var wire 1 0 slv0_req_i $end
$var wire 32 B slv0_data_i [31:0] $end
$var wire 1 ; a2s2_ack_o $end
$var wire 1 < a2s1_ack_o $end
$var wire 1 = a2s0_ack_o $end
$var reg 32 C arb_data_r [31:0] $end
$var reg 2 D arb_id_r [1:0] $end
$var reg 3 E c_state [2:0] $end
$var reg 1 F data_val_r $end
$var reg 3 G n_state [2:0] $end
$upscope $end
$scope module inst_slva_fifo_0 $end
$var wire 1 = a2sx_ack_i $end
$var wire 32 H chx_data_i [31:0] $end
$var wire 1 " chx_valid_i $end
$var wire 1 ' clk_i $end
$var wire 1 I rd_en_s $end
$var wire 1 ( rstn_i $end
$var wire 6 J slvx_margin_o [5:0] $end
$var wire 1 K full_s $end
$var wire 1 L empty_s $end
$var wire 6 M data_cnt_s [5:0] $end
$var reg 1 9 chx_ready_o $end
$var reg 6 N rd_pointer_r [5:0] $end
$var reg 32 O slvx_data_o [31:0] $end
$var reg 1 0 slvx_req_o $end
$var reg 1 / slvx_val_o $end
$var reg 6 P wr_pointer_r [5:0] $end
$scope begin MEM_WRITE $end
$upscope $end
$scope begin READ_DATA $end
$upscope $end
$scope begin READ_POINTER $end
$upscope $end
$scope begin WRITE_POINTER $end
$upscope $end
$upscope $end
$scope module inst_slva_fifo_1 $end
$var wire 1 < a2sx_ack_i $end
$var wire 32 Q chx_data_i [31:0] $end
$var wire 1 $ chx_valid_i $end
$var wire 1 ' clk_i $end
$var wire 1 R rd_en_s $end
$var wire 1 ( rstn_i $end
$var wire 6 S slvx_margin_o [5:0] $end
$var wire 1 T full_s $end
$var wire 1 U empty_s $end
$var wire 6 V data_cnt_s [5:0] $end
$var reg 1 7 chx_ready_o $end
$var reg 6 W rd_pointer_r [5:0] $end
$var reg 32 X slvx_data_o [31:0] $end
$var reg 1 - slvx_req_o $end
$var reg 1 , slvx_val_o $end
$var reg 6 Y wr_pointer_r [5:0] $end
$scope begin MEM_WRITE $end
$upscope $end
$scope begin READ_DATA $end
$upscope $end
$scope begin READ_POINTER $end
$upscope $end
$scope begin WRITE_POINTER $end
$upscope $end
$upscope $end
$scope module inst_slva_fifo_2 $end
$var wire 1 ; a2sx_ack_i $end
$var wire 32 Z chx_data_i [31:0] $end
$var wire 1 & chx_valid_i $end
$var wire 1 ' clk_i $end
$var wire 1 [ rd_en_s $end
$var wire 1 ( rstn_i $end
$var wire 6 \ slvx_margin_o [5:0] $end
$var wire 1 ] full_s $end
$var wire 1 ^ empty_s $end
$var wire 6 _ data_cnt_s [5:0] $end
$var reg 1 5 chx_ready_o $end
$var reg 6 ` rd_pointer_r [5:0] $end
$var reg 32 a slvx_data_o [31:0] $end
$var reg 1 * slvx_req_o $end
$var reg 1 ) slvx_val_o $end
$var reg 6 b wr_pointer_r [5:0] $end
$scope begin MEM_WRITE $end
$upscope $end
$scope begin READ_DATA $end
$upscope $end
$scope begin READ_POINTER $end
$upscope $end
$scope begin WRITE_POINTER $end
$upscope $end
$upscope $end
$upscope $end
$enddefinitions $end
#0
$dumpvars
bx b
bx a
bx `
bx _
x^
x]
bx \
x[
bz Z
bx Y
bx X
bx W
bx V
xU
xT
bx S
xR
bz Q
bx P
bx O
bx N
bx M
xL
xK
bx J
xI
bz H
b0 G
0F
bx E
b11 D
b11111111111111111111111111111111 C
bx B
bx A
bx @
b11 ?
b11111111111111111111111111111111 >
x=
x<
x;
bx :
x9
bx 8
x7
bx 6
x5
b11111111111111111111111111111111 4
b11 3
02
bx 1
00
x/
bx .
0-
x,
bx +
0*
x)
z(
0'
z&
bz %
z$
bz #
z"
bz !
$end
#5000
b0 E
0=
0I
0/
0<
0R
0,
0;
1'
0[
0)
#10000
0K
19
1L
b100000 :
b100000 J
b100000 M
b0 N
b0 P
0T
17
1U
b100000 8
b100000 S
b100000 V
b0 W
b0 Y
0'
0(
0]
15
1^
b100000 6
b100000 \
b100000 _
b0 `
b0 b
#15000
1'
#20000
0'
#25000
1'
#30000
0'
#35000
1'
#40000
0'
#45000
1'
#50000
0'
#55000
1'
#60000
0'
#65000
1'
#70000
0'
#75000
1'
#80000
0'
#85000
1'
#90000
0'
#95000
1'
#100000
0'
#105000
1'
1(
#110000
0'
#115000
1'
#120000
0'
#125000
b1 G
1*
1-
10
0^
b11111 6
b11111 \
b11111 _
b1 b
0U
b11111 8
b11111 S
b11111 V
b1 Y
0L
b11111 :
b11111 J
b11111 M
b1 P
b11000000000000000000000000000000 !
b11000000000000000000000000000000 H
1"
b11000001000000000000000000000000 #
b11000001000000000000000000000000 Q
1$
b11000010000000000000000000000000 %
b11000010000000000000000000000000 Z
1&
1'
#130000
00
b0 G
1L
b100000 :
b100000 J
b100000 M
b0 P
0-
1U
b100000 8
b100000 S
b100000 V
b0 Y
0'
0*
1^
b100000 6
b100000 \
b100000 _
b0 b
#135000
1R
1<
b10 E
10
b100 G
b11000000000000000000000000000001 !
b11000000000000000000000000000001 H
0L
b11110 :
b11110 J
b11110 M
b10 P
b11000001000000000000000000000001 #
b11000001000000000000000000000001 Q
1-
0U
b11110 8
b11110 S
b11110 V
b10 Y
b11000010000000000000000000000001 %
b11000010000000000000000000000001 Z
1'
1*
0^
b11110 6
b11110 \
b11110 _
b10 b
#140000
b0 E
b1 G
b11111 :
b11111 J
b11111 M
b1 P
0<
0R
b11111 8
b11111 S
b11111 V
b1 Y
0'
b11111 6
b11111 \
b11111 _
b1 b
#145000
1R
1<
b11000000000000000000000000000000 4
b11000000000000000000000000000000 >
b11000000000000000000000000000000 C
b0 3
b0 ?
b0 D
12
1F
b1 N
1/
b11000000000000000000000000000000 1
b11000000000000000000000000000000 B
b11000000000000000000000000000000 O
b10 E
b100 G
0=
b11000000000000000000000000000010 !
b11000000000000000000000000000010 H
0I
b11110 :
b11110 J
b11110 M
b11 P
b11000001000000000000000000000010 #
b11000001000000000000000000000010 Q
b11101 8
b11101 S
b11101 V
b11 Y
b11000010000000000000000000000010 %
b11000010000000000000000000000010 Z
1'
b11101 6
b11101 \
b11101 _
b11 b
#150000
b11111111111111111111111111111111 4
b11111111111111111111111111111111 >
b11111111111111111111111111111111 C
b11 3
b11 ?
b11 D
b1 E
02
0F
b10 G
1=
1I
b0 N
bx 1
bx B
bx O
0/
b11110 :
b11110 J
b11110 M
b10 P
0<
0R
b11110 8
b11110 S
b11110 V
b10 Y
0'
b11110 6
b11110 \
b11110 _
b10 b
#155000
1[
1;
b1 W
1,
b11000001000000000000000000000000 .
b11000001000000000000000000000000 A
b11000001000000000000000000000000 X
b11000001000000000000000000000000 4
b11000001000000000000000000000000 >
b11000001000000000000000000000000 C
b1 3
b1 ?
b1 D
b100 E
12
1F
b1 G
0=
b11000000000000000000000000000011 !
b11000000000000000000000000000011 H
0I
b1 N
b11000000000000000000000000000000 1
b11000000000000000000000000000000 B
b11000000000000000000000000000000 O
0/
b11101 :
b11101 J
b11101 M
b100 P
0<
b11000001000000000000000000000011 #
b11000001000000000000000000000011 Q
0R
b11101 8
b11101 S
b11101 V
b100 Y
b11000010000000000000000000000011 %
b11000010000000000000000000000011 Z
1'
b11100 6
b11100 \
b11100 _
b100 b
#160000
b11000000000000000000000000000000 4
b11000000000000000000000000000000 >
b11000000000000000000000000000000 C
b0 3
b0 ?
b0 D
b10 E
b100 G
1/
b11110 :
b11110 J
b11110 M
b11 P
1<
1R
b0 W
bx .
bx A
bx X
0,
b11101 8
b11101 S
b11101 V
b11 Y
0;
0'
0[
b11101 6
b11101 \
b11101 _
b11 b
#165000
1I
1=
b1 `
1)
b11000010000000000000000000000000 +
b11000010000000000000000000000000 @
b11000010000000000000000000000000 a
b11000010000000000000000000000000 4
b11000010000000000000000000000000 >
b11000010000000000000000000000000 C
b10 3
b10 ?
b10 D
b1 E
b10 G
b11000000000000000000000000000100 !
b11000000000000000000000000000100 H
0/
b11100 :
b11100 J
b11100 M
b101 P
0<
b11000001000000000000000000000100 #
b11000001000000000000000000000100 Q
0R
b1 W
b11000001000000000000000000000000 .
b11000001000000000000000000000000 A
b11000001000000000000000000000000 X
0,
b11100 8
b11100 S
b11100 V
b101 Y
0;
b11000010000000000000000000000100 %
b11000010000000000000000000000100 Z
1'
0[
b11100 6
b11100 \
b11100 _
b101 b
#170000
b11000001000000000000000000000000 4
b11000001000000000000000000000000 >
b11000001000000000000000000000000 C
b1 3
b1 ?
b1 D
b100 E
b1 G
0=
0I
b11101 :
b11101 J
b11101 M
b100 P
1,
b11101 8
b11101 S
b11101 V
b100 Y
1;
0'
1[
b0 `
bx +
bx @
bx a
0)
b11100 6
b11100 \
b11100 _
b100 b
#175000
1R
1<
b10 N
1/
b11000000000000000000000000000001 1
b11000000000000000000000000000001 B
b11000000000000000000000000000001 O
b11000000000000000000000000000001 4
b11000000000000000000000000000001 >
b11000000000000000000000000000001 C
b0 3
b0 ?
b0 D
b10 E
b100 G
0=
b11000000000000000000000000000101 !
b11000000000000000000000000000101 H
0I
b11100 :
b11100 J
b11100 M
b110 P
b11000001000000000000000000000101 #
b11000001000000000000000000000101 Q
0,
b11011 8
b11011 S
b11011 V
b110 Y
0;
b11000010000000000000000000000101 %
b11000010000000000000000000000101 Z
1'
0[
b1 `
b11000010000000000000000000000000 +
b11000010000000000000000000000000 @
b11000010000000000000000000000000 a
0)
b11011 6
b11011 \
b11011 _
b110 b
#180000
b11000010000000000000000000000000 4
b11000010000000000000000000000000 >
b11000010000000000000000000000000 C
b10 3
b10 ?
b10 D
b1 E
b10 G
1=
1I
b1 N
b11000000000000000000000000000000 1
b11000000000000000000000000000000 B
b11000000000000000000000000000000 O
0/
b11100 :
b11100 J
b11100 M
b101 P
0<
0R
b11100 8
b11100 S
b11100 V
b101 Y
0'
1)
b11100 6
b11100 \
b11100 _
b101 b
#185000
1[
1;
b10 W
1,
b11000001000000000000000000000001 .
b11000001000000000000000000000001 A
b11000001000000000000000000000001 X
b11000001000000000000000000000001 4
b11000001000000000000000000000001 >
b11000001000000000000000000000001 C
b1 3
b1 ?
b1 D
b100 E
b1 G
0=
b11000000000000000000000000000110 !
b11000000000000000000000000000110 H
0I
b10 N
b11000000000000000000000000000001 1
b11000000000000000000000000000001 B
b11000000000000000000000000000001 O
0/
b11011 :
b11011 J
b11011 M
b111 P
0<
b11000001000000000000000000000110 #
b11000001000000000000000000000110 Q
0R
b11011 8
b11011 S
b11011 V
b111 Y
b11000010000000000000000000000110 %
b11000010000000000000000000000110 Z
1'
0)
b11010 6
b11010 \
b11010 _
b111 b
#190000
b11000000000000000000000000000001 4
b11000000000000000000000000000001 >
b11000000000000000000000000000001 C
b0 3
b0 ?
b0 D
b10 E
b100 G
1/
b11100 :
b11100 J
b11100 M
b110 P
1<
1R
b1 W
b11000001000000000000000000000000 .
b11000001000000000000000000000000 A
b11000001000000000000000000000000 X
0,
b11011 8
b11011 S
b11011 V
b110 Y
0;
0'
0[
b11011 6
b11011 \
b11011 _
b110 b
#195000
1I
1=
b10 `
1)
b11000010000000000000000000000001 +
b11000010000000000000000000000001 @
b11000010000000000000000000000001 a
b11000010000000000000000000000001 4
b11000010000000000000000000000001 >
b11000010000000000000000000000001 C
b10 3
b10 ?
b10 D
b1 E
b10 G
b11000000000000000000000000000111 !
b11000000000000000000000000000111 H
0/
b11010 :
b11010 J
b11010 M
b1000 P
0<
b11000001000000000000000000000111 #
b11000001000000000000000000000111 Q
0R
b10 W
b11000001000000000000000000000001 .
b11000001000000000000000000000001 A
b11000001000000000000000000000001 X
0,
b11010 8
b11010 S
b11010 V
b1000 Y
0;
b11000010000000000000000000000111 %
b11000010000000000000000000000111 Z
1'
0[
b11010 6
b11010 \
b11010 _
b1000 b
#200000
b11000001000000000000000000000001 4
b11000001000000000000000000000001 >
b11000001000000000000000000000001 C
b1 3
b1 ?
b1 D
b100 E
b1 G
0=
0I
b11011 :
b11011 J
b11011 M
b111 P
1,
b11011 8
b11011 S
b11011 V
b111 Y
1;
0'
1[
b1 `
b11000010000000000000000000000000 +
b11000010000000000000000000000000 @
b11000010000000000000000000000000 a
0)
b11010 6
b11010 \
b11010 _
b111 b
#205000
1R
1<
b11 N
1/
b11000000000000000000000000000010 1
b11000000000000000000000000000010 B
b11000000000000000000000000000010 O
b11000000000000000000000000000010 4
b11000000000000000000000000000010 >
b11000000000000000000000000000010 C
b0 3
b0 ?
b0 D
b10 E
b100 G
0=
b11000000000000000000000000001000 !
b11000000000000000000000000001000 H
0I
b11010 :
b11010 J
b11010 M
b1001 P
b11000001000000000000000000001000 #
b11000001000000000000000000001000 Q
0,
b11001 8
b11001 S
b11001 V
b1001 Y
0;
b11000010000000000000000000001000 %
b11000010000000000000000000001000 Z
1'
0[
b10 `
b11000010000000000000000000000001 +
b11000010000000000000000000000001 @
b11000010000000000000000000000001 a
0)
b11001 6
b11001 \
b11001 _
b1001 b
#210000
b11000010000000000000000000000001 4
b11000010000000000000000000000001 >
b11000010000000000000000000000001 C
b10 3
b10 ?
b10 D
b1 E
b10 G
1=
1I
b10 N
b11000000000000000000000000000001 1
b11000000000000000000000000000001 B
b11000000000000000000000000000001 O
0/
b11010 :
b11010 J
b11010 M
b1000 P
0<
0R
b11010 8
b11010 S
b11010 V
b1000 Y
0'
1)
b11010 6
b11010 \
b11010 _
b1000 b
#215000
1[
1;
b11 W
1,
b11000001000000000000000000000010 .
b11000001000000000000000000000010 A
b11000001000000000000000000000010 X
b11000001000000000000000000000010 4
b11000001000000000000000000000010 >
b11000001000000000000000000000010 C
b1 3
b1 ?
b1 D
b100 E
b1 G
0=
b11000000000000000000000000001001 !
b11000000000000000000000000001001 H
0I
b11 N
b11000000000000000000000000000010 1
b11000000000000000000000000000010 B
b11000000000000000000000000000010 O
0/
b11001 :
b11001 J
b11001 M
b1010 P
0<
b11000001000000000000000000001001 #
b11000001000000000000000000001001 Q
0R
b11001 8
b11001 S
b11001 V
b1010 Y
b11000010000000000000000000001001 %
b11000010000000000000000000001001 Z
1'
0)
b11000 6
b11000 \
b11000 _
b1010 b
#220000
b11000000000000000000000000000010 4
b11000000000000000000000000000010 >
b11000000000000000000000000000010 C
b0 3
b0 ?
b0 D
b10 E
b100 G
1/
b11010 :
b11010 J
b11010 M
b1001 P
1<
1R
b10 W
b11000001000000000000000000000001 .
b11000001000000000000000000000001 A
b11000001000000000000000000000001 X
0,
b11001 8
b11001 S
b11001 V
b1001 Y
0;
0'
0[
b11001 6
b11001 \
b11001 _
b1001 b
#225000
1I
1=
b11 `
1)
b11000010000000000000000000000010 +
b11000010000000000000000000000010 @
b11000010000000000000000000000010 a
b11000010000000000000000000000010 4
b11000010000000000000000000000010 >
b11000010000000000000000000000010 C
b10 3
b10 ?
b10 D
b1 E
b10 G
b0 !
b0 H
0"
0/
b11001 :
b11001 J
b11001 M
b1010 P
0<
b0 #
b0 Q
0$
0R
b11 W
b11000001000000000000000000000010 .
b11000001000000000000000000000010 A
b11000001000000000000000000000010 X
0,
b11001 8
b11001 S
b11001 V
b1010 Y
0;
b0 %
b0 Z
0&
1'
0[
b11001 6
b11001 \
b11001 _
b1010 b
#230000
b11000001000000000000000000000010 4
b11000001000000000000000000000010 >
b11000001000000000000000000000010 C
b1 3
b1 ?
b1 D
b100 E
b1 G
0=
0I
1,
1;
0'
1[
b11000 6
b11000 \
b11000 _
b10 `
b11000010000000000000000000000001 +
b11000010000000000000000000000001 @
b11000010000000000000000000000001 a
0)
#235000
1R
1<
b11010 :
b11010 J
b11010 M
b100 N
1/
b11000000000000000000000000000011 1
b11000000000000000000000000000011 B
b11000000000000000000000000000011 O
b11000000000000000000000000000011 4
b11000000000000000000000000000011 >
b11000000000000000000000000000011 C
b0 3
b0 ?
b0 D
b10 E
b100 G
0=
0I
0,
0;
1'
0[
b11001 6
b11001 \
b11001 _
b11 `
b11000010000000000000000000000010 +
b11000010000000000000000000000010 @
b11000010000000000000000000000010 a
0)
#240000
b11000010000000000000000000000010 4
b11000010000000000000000000000010 >
b11000010000000000000000000000010 C
b10 3
b10 ?
b10 D
b1 E
b10 G
1=
1I
b11001 :
b11001 J
b11001 M
b11 N
b11000000000000000000000000000010 1
b11000000000000000000000000000010 B
b11000000000000000000000000000010 O
0/
0<
0R
0'
1)
#245000
1[
1;
b11010 8
b11010 S
b11010 V
b100 W
1,
b11000001000000000000000000000011 .
b11000001000000000000000000000011 A
b11000001000000000000000000000011 X
b11000001000000000000000000000011 4
b11000001000000000000000000000011 >
b11000001000000000000000000000011 C
b1 3
b1 ?
b1 D
b100 E
b1 G
0=
0I
b11010 :
b11010 J
b11010 M
b100 N
b11000000000000000000000000000011 1
b11000000000000000000000000000011 B
b11000000000000000000000000000011 O
0/
0<
0R
1'
0)
#250000
b11000000000000000000000000000011 4
b11000000000000000000000000000011 >
b11000000000000000000000000000011 C
b0 3
b0 ?
b0 D
b10 E
b100 G
1/
1<
1R
b11001 8
b11001 S
b11001 V
b11 W
b11000001000000000000000000000010 .
b11000001000000000000000000000010 A
b11000001000000000000000000000010 X
0,
0;
0'
0[
#255000
1I
1=
b11010 6
b11010 \
b11010 _
b100 `
1)
b11000010000000000000000000000011 +
b11000010000000000000000000000011 @
b11000010000000000000000000000011 a
b11000010000000000000000000000011 4
b11000010000000000000000000000011 >
b11000010000000000000000000000011 C
b10 3
b10 ?
b10 D
b1 E
b10 G
0/
0<
0R
b11010 8
b11010 S
b11010 V
b100 W
b11000001000000000000000000000011 .
b11000001000000000000000000000011 A
b11000001000000000000000000000011 X
0,
0;
1'
0[
#260000
b11000001000000000000000000000011 4
b11000001000000000000000000000011 >
b11000001000000000000000000000011 C
b1 3
b1 ?
b1 D
b100 E
b1 G
0=
0I
1,
1;
0'
1[
b11001 6
b11001 \
b11001 _
b11 `
b11000010000000000000000000000010 +
b11000010000000000000000000000010 @
b11000010000000000000000000000010 a
0)
#265000
1R
1<
b11011 :
b11011 J
b11011 M
b101 N
1/
b11000000000000000000000000000100 1
b11000000000000000000000000000100 B
b11000000000000000000000000000100 O
b11000000000000000000000000000100 4
b11000000000000000000000000000100 >
b11000000000000000000000000000100 C
b0 3
b0 ?
b0 D
b10 E
b100 G
0=
0I
0,
0;
1'
0[
b11010 6
b11010 \
b11010 _
b100 `
b11000010000000000000000000000011 +
b11000010000000000000000000000011 @
b11000010000000000000000000000011 a
0)
#270000
b11000010000000000000000000000011 4
b11000010000000000000000000000011 >
b11000010000000000000000000000011 C
b10 3
b10 ?
b10 D
b1 E
b10 G
1=
1I
b11010 :
b11010 J
b11010 M
b100 N
b11000000000000000000000000000011 1
b11000000000000000000000000000011 B
b11000000000000000000000000000011 O
0/
0<
0R
0'
1)
#275000
1[
1;
b11011 8
b11011 S
b11011 V
b101 W
1,
b11000001000000000000000000000100 .
b11000001000000000000000000000100 A
b11000001000000000000000000000100 X
b11000001000000000000000000000100 4
b11000001000000000000000000000100 >
b11000001000000000000000000000100 C
b1 3
b1 ?
b1 D
b100 E
b1 G
0=
0I
b11011 :
b11011 J
b11011 M
b101 N
b11000000000000000000000000000100 1
b11000000000000000000000000000100 B
b11000000000000000000000000000100 O
0/
0<
0R
1'
0)
#280000
b11000000000000000000000000000100 4
b11000000000000000000000000000100 >
b11000000000000000000000000000100 C
b0 3
b0 ?
b0 D
b10 E
b100 G
1/
1<
1R
b11010 8
b11010 S
b11010 V
b100 W
b11000001000000000000000000000011 .
b11000001000000000000000000000011 A
b11000001000000000000000000000011 X
0,
0;
0'
0[
#285000
1I
1=
b11011 6
b11011 \
b11011 _
b101 `
1)
b11000010000000000000000000000100 +
b11000010000000000000000000000100 @
b11000010000000000000000000000100 a
b11000010000000000000000000000100 4
b11000010000000000000000000000100 >
b11000010000000000000000000000100 C
b10 3
b10 ?
b10 D
b1 E
b10 G
0/
0<
0R
b11011 8
b11011 S
b11011 V
b101 W
b11000001000000000000000000000100 .
b11000001000000000000000000000100 A
b11000001000000000000000000000100 X
0,
0;
1'
0[
#290000
b11000001000000000000000000000100 4
b11000001000000000000000000000100 >
b11000001000000000000000000000100 C
b1 3
b1 ?
b1 D
b100 E
b1 G
0=
0I
1,
1;
0'
1[
b11010 6
b11010 \
b11010 _
b100 `
b11000010000000000000000000000011 +
b11000010000000000000000000000011 @
b11000010000000000000000000000011 a
0)
#295000
1R
1<
b11100 :
b11100 J
b11100 M
b110 N
1/
b11000000000000000000000000000101 1
b11000000000000000000000000000101 B
b11000000000000000000000000000101 O
b11000000000000000000000000000101 4
b11000000000000000000000000000101 >
b11000000000000000000000000000101 C
b0 3
b0 ?
b0 D
b10 E
b100 G
0=
0I
0,
0;
1'
0[
b11011 6
b11011 \
b11011 _
b101 `
b11000010000000000000000000000100 +
b11000010000000000000000000000100 @
b11000010000000000000000000000100 a
0)
#300000
b11000010000000000000000000000100 4
b11000010000000000000000000000100 >
b11000010000000000000000000000100 C
b10 3
b10 ?
b10 D
b1 E
b10 G
1=
1I
b11011 :
b11011 J
b11011 M
b101 N
b11000000000000000000000000000100 1
b11000000000000000000000000000100 B
b11000000000000000000000000000100 O
0/
0<
0R
0'
1)
#305000
1[
1;
b11100 8
b11100 S
b11100 V
b110 W
1,
b11000001000000000000000000000101 .
b11000001000000000000000000000101 A
b11000001000000000000000000000101 X
b11000001000000000000000000000101 4
b11000001000000000000000000000101 >
b11000001000000000000000000000101 C
b1 3
b1 ?
b1 D
b100 E
b1 G
0=
0I
b11100 :
b11100 J
b11100 M
b110 N
b11000000000000000000000000000101 1
b11000000000000000000000000000101 B
b11000000000000000000000000000101 O
0/
0<
0R
1'
0)
#310000
b11000000000000000000000000000101 4
b11000000000000000000000000000101 >
b11000000000000000000000000000101 C
b0 3
b0 ?
b0 D
b10 E
b100 G
1/
1<
1R
b11011 8
b11011 S
b11011 V
b101 W
b11000001000000000000000000000100 .
b11000001000000000000000000000100 A
b11000001000000000000000000000100 X
0,
0;
0'
0[
#315000
1I
1=
b11100 6
b11100 \
b11100 _
b110 `
1)
b11000010000000000000000000000101 +
b11000010000000000000000000000101 @
b11000010000000000000000000000101 a
b11000010000000000000000000000101 4
b11000010000000000000000000000101 >
b11000010000000000000000000000101 C
b10 3
b10 ?
b10 D
b1 E
b10 G
0/
0<
0R
b11100 8
b11100 S
b11100 V
b110 W
b11000001000000000000000000000101 .
b11000001000000000000000000000101 A
b11000001000000000000000000000101 X
0,
0;
1'
0[
#320000
b11000001000000000000000000000101 4
b11000001000000000000000000000101 >
b11000001000000000000000000000101 C
b1 3
b1 ?
b1 D
b100 E
b1 G
0=
0I
1,
1;
0'
1[
b11011 6
b11011 \
b11011 _
b101 `
b11000010000000000000000000000100 +
b11000010000000000000000000000100 @
b11000010000000000000000000000100 a
0)
#325000
1R
1<
b11101 :
b11101 J
b11101 M
b111 N
1/
b11000000000000000000000000000110 1
b11000000000000000000000000000110 B
b11000000000000000000000000000110 O
b11000000000000000000000000000110 4
b11000000000000000000000000000110 >
b11000000000000000000000000000110 C
b0 3
b0 ?
b0 D
b10 E
b100 G
0=
0I
0,
0;
1'
0[
b11100 6
b11100 \
b11100 _
b110 `
b11000010000000000000000000000101 +
b11000010000000000000000000000101 @
b11000010000000000000000000000101 a
0)
#330000
b11000010000000000000000000000101 4
b11000010000000000000000000000101 >
b11000010000000000000000000000101 C
b10 3
b10 ?
b10 D
b1 E
b10 G
1=
1I
b11100 :
b11100 J
b11100 M
b110 N
b11000000000000000000000000000101 1
b11000000000000000000000000000101 B
b11000000000000000000000000000101 O
0/
0<
0R
0'
1)
#335000
1[
1;
b11101 8
b11101 S
b11101 V
b111 W
1,
b11000001000000000000000000000110 .
b11000001000000000000000000000110 A
b11000001000000000000000000000110 X
b11000001000000000000000000000110 4
b11000001000000000000000000000110 >
b11000001000000000000000000000110 C
b1 3
b1 ?
b1 D
b100 E
b1 G
0=
0I
b11101 :
b11101 J
b11101 M
b111 N
b11000000000000000000000000000110 1
b11000000000000000000000000000110 B
b11000000000000000000000000000110 O
0/
0<
0R
1'
0)
#340000
b11000000000000000000000000000110 4
b11000000000000000000000000000110 >
b11000000000000000000000000000110 C
b0 3
b0 ?
b0 D
b10 E
b100 G
1/
1<
1R
b11100 8
b11100 S
b11100 V
b110 W
b11000001000000000000000000000101 .
b11000001000000000000000000000101 A
b11000001000000000000000000000101 X
0,
0;
0'
0[
#345000
1I
1=
b11101 6
b11101 \
b11101 _
b111 `
1)
b11000010000000000000000000000110 +
b11000010000000000000000000000110 @
b11000010000000000000000000000110 a
b11000010000000000000000000000110 4
b11000010000000000000000000000110 >
b11000010000000000000000000000110 C
b10 3
b10 ?
b10 D
b1 E
b10 G
0/
0<
0R
b11101 8
b11101 S
b11101 V
b111 W
b11000001000000000000000000000110 .
b11000001000000000000000000000110 A
b11000001000000000000000000000110 X
0,
0;
1'
0[
#350000
b11000001000000000000000000000110 4
b11000001000000000000000000000110 >
b11000001000000000000000000000110 C
b1 3
b1 ?
b1 D
b100 E
b1 G
0=
0I
1,
1;
0'
1[
b11100 6
b11100 \
b11100 _
b110 `
b11000010000000000000000000000101 +
b11000010000000000000000000000101 @
b11000010000000000000000000000101 a
0)
#355000
1R
1<
b11110 :
b11110 J
b11110 M
b1000 N
1/
b11000000000000000000000000000111 1
b11000000000000000000000000000111 B
b11000000000000000000000000000111 O
b11000000000000000000000000000111 4
b11000000000000000000000000000111 >
b11000000000000000000000000000111 C
b0 3
b0 ?
b0 D
b10 E
b100 G
0=
0I
0,
0;
1'
0[
b11101 6
b11101 \
b11101 _
b111 `
b11000010000000000000000000000110 +
b11000010000000000000000000000110 @
b11000010000000000000000000000110 a
0)
#360000
b11000010000000000000000000000110 4
b11000010000000000000000000000110 >
b11000010000000000000000000000110 C
b10 3
b10 ?
b10 D
b1 E
b10 G
1=
1I
b11101 :
b11101 J
b11101 M
b111 N
b11000000000000000000000000000110 1
b11000000000000000000000000000110 B
b11000000000000000000000000000110 O
0/
0<
0R
0'
1)
#365000
1[
1;
b11110 8
b11110 S
b11110 V
b1000 W
1,
b11000001000000000000000000000111 .
b11000001000000000000000000000111 A
b11000001000000000000000000000111 X
b11000001000000000000000000000111 4
b11000001000000000000000000000111 >
b11000001000000000000000000000111 C
b1 3
b1 ?
b1 D
b100 E
b1 G
0=
0I
b11110 :
b11110 J
b11110 M
b1000 N
b11000000000000000000000000000111 1
b11000000000000000000000000000111 B
b11000000000000000000000000000111 O
0/
0<
0R
1'
0)
#370000
b11000000000000000000000000000111 4
b11000000000000000000000000000111 >
b11000000000000000000000000000111 C
b0 3
b0 ?
b0 D
b10 E
b100 G
1/
1<
1R
b11101 8
b11101 S
b11101 V
b111 W
b11000001000000000000000000000110 .
b11000001000000000000000000000110 A
b11000001000000000000000000000110 X
0,
0;
0'
0[
#375000
1I
1=
b11110 6
b11110 \
b11110 _
b1000 `
1)
b11000010000000000000000000000111 +
b11000010000000000000000000000111 @
b11000010000000000000000000000111 a
b11000010000000000000000000000111 4
b11000010000000000000000000000111 >
b11000010000000000000000000000111 C
b10 3
b10 ?
b10 D
b1 E
b10 G
0/
0<
0R
b11110 8
b11110 S
b11110 V
b1000 W
b11000001000000000000000000000111 .
b11000001000000000000000000000111 A
b11000001000000000000000000000111 X
0,
0;
1'
0[
#380000
b11000001000000000000000000000111 4
b11000001000000000000000000000111 >
b11000001000000000000000000000111 C
b1 3
b1 ?
b1 D
b100 E
b1 G
0=
0I
1,
1;
0'
1[
b11101 6
b11101 \
b11101 _
b111 `
b11000010000000000000000000000110 +
b11000010000000000000000000000110 @
b11000010000000000000000000000110 a
0)
#385000
1R
1<
b11111 :
b11111 J
b11111 M
b1001 N
1/
b11000000000000000000000000001000 1
b11000000000000000000000000001000 B
b11000000000000000000000000001000 O
b11000000000000000000000000001000 4
b11000000000000000000000000001000 >
b11000000000000000000000000001000 C
b0 3
b0 ?
b0 D
b10 E
b100 G
0=
0I
0,
0;
1'
0[
b11110 6
b11110 \
b11110 _
b1000 `
b11000010000000000000000000000111 +
b11000010000000000000000000000111 @
b11000010000000000000000000000111 a
0)
